[
  {
    "_id": "5fa114c9c92b4f19323fe5cd",
    "portfolioLinks": ["https://www.example.com/dejatoler/link1"],
    "socialLinks": {
      "facebook": "https://www.facebook.com/dejatoler",
      "instagram": "https://www.instagram.com/dejatoler",
      "youtube": "https://www.youtube.com/dejatoler",
      "twitter": "https://www.twitter.com/dejatoler"
    },
    "realName": "Deja Toler",
    "photo": null,
    "isApproved": true,
    "isFeatured": true,
    "isDisabled": false,
    "email": "dejatoler@cinestock.com",
    "username": "contributor1",
    "password": "Contributor!23"
  },
  {
    "_id": "5fa114c9c92b4f19323fe5ce",
    "portfolioLinks": [
      "https://www.example.com/shantaslocum/link1",
      "https://www.example.com/shantaslocum/link2",
      "https://www.example.com/shantaslocum/link3"
    ],
    "socialLinks": {
      "facebook": "https://www.facebook.com/shantaslocum",
      "instagram": "https://www.instagram.com/shantaslocum",
      "youtube": "https://www.youtube.com/shantaslocum",
      "twitter": "https://www.twitter.com/shantaslocum"
    },
    "realName": "Shanta Slocum",
    "photo": null,
    "isApproved": true,
    "isFeatured": true,
    "isDisabled": false,
    "email": "shantaslocum@cinestock.com",
    "username": "contributor2",
    "password": "Contributor!23"
  },
  {
    "_id": "5fa114c9c92b4f19323fe5cf",
    "portfolioLinks": [
      "https://www.example.com/sunggaffney/link1",
      "https://www.example.com/sunggaffney/link2"
    ],
    "socialLinks": {
      "facebook": "https://www.facebook.com/sunggaffney",
      "instagram": "https://www.instagram.com/sunggaffney",
      "youtube": "https://www.youtube.com/sunggaffney",
      "twitter": "https://www.twitter.com/sunggaffney"
    },
    "realName": "Sung Gaffney",
    "photo": null,
    "isApproved": true,
    "isFeatured": true,
    "isDisabled": false,
    "email": "sunggaffney@cinestock.com",
    "username": "contributor3",
    "password": "Contributor!23"
  },
  {
    "_id": "5fa114c9c92b4f19323fe5d0",
    "portfolioLinks": [
      "https://www.example.com/orethakilpatrick/link1",
      "https://www.example.com/orethakilpatrick/link2"
    ],
    "socialLinks": {
      "facebook": "https://www.facebook.com/orethakilpatrick",
      "instagram": "https://www.instagram.com/orethakilpatrick",
      "youtube": "https://www.youtube.com/orethakilpatrick",
      "twitter": "https://www.twitter.com/orethakilpatrick"
    },
    "realName": "Oretha Kilpatrick",
    "photo": null,
    "isApproved": true,
    "isFeatured": false,
    "isDisabled": false,
    "email": "orethakilpatrick@cinestock.com",
    "username": "contributor4",
    "password": "Contributor!23"
  },
  {
    "_id": "5fa114c9c92b4f19323fe5d1",
    "portfolioLinks": [],
    "socialLinks": {
      "facebook": "https://www.facebook.com/edmundocaruso",
      "instagram": "https://www.instagram.com/edmundocaruso",
      "youtube": "https://www.youtube.com/edmundocaruso",
      "twitter": "https://www.twitter.com/edmundocaruso"
    },
    "realName": "Edmundo Caruso",
    "photo": "https://cinestock.s3.amazonaws.com/1604647941123-93aba382-8733-4652-b176-3d5ba6f41027.jpg",
    "isApproved": true,
    "isFeatured": true,
    "isDisabled": false,
    "email": "edmundocaruso@cinestock.com",
    "username": "contributor5",
    "password": "Contributor!23"
  },
  {
    "_id": "5fa114c9c92b4f19323fe5d2",
    "portfolioLinks": ["https://www.example.com/tamragooch/link1"],
    "socialLinks": {
      "facebook": "https://www.facebook.com/tamragooch",
      "instagram": "https://www.instagram.com/tamragooch",
      "youtube": "https://www.youtube.com/tamragooch",
      "twitter": "https://www.twitter.com/tamragooch"
    },
    "realName": "Tamra Gooch",
    "photo": null,
    "isApproved": true,
    "isFeatured": false,
    "isDisabled": false,
    "email": "tamragooch@cinestock.com",
    "username": "contributor6",
    "password": "Contributor!23"
  },
  {
    "_id": "5fa114c9c92b4f19323fe5d3",
    "portfolioLinks": ["https://www.example.com/florentinabarksdale/link1"],
    "socialLinks": {
      "facebook": "https://www.facebook.com/florentinabarksdale",
      "instagram": "https://www.instagram.com/florentinabarksdale",
      "youtube": "https://www.youtube.com/florentinabarksdale",
      "twitter": "https://www.twitter.com/florentinabarksdale"
    },
    "realName": "Florentina Barksdale",
    "photo": null,
    "isApproved": true,
    "isFeatured": true,
    "isDisabled": false,
    "email": "florentinabarksdale@cinestock.com",
    "username": "contributor7",
    "password": "Contributor!23"
  },
  {
    "_id": "5fa114c9c92b4f19323fe5d4",
    "portfolioLinks": [],
    "socialLinks": {
      "facebook": "https://www.facebook.com/bryannalundy",
      "instagram": "https://www.instagram.com/bryannalundy",
      "youtube": "https://www.youtube.com/bryannalundy",
      "twitter": "https://www.twitter.com/bryannalundy"
    },
    "realName": "Bryanna Lundy",
    "photo": null,
    "isApproved": true,
    "isFeatured": true,
    "isDisabled": false,
    "email": "bryannalundy@cinestock.com",
    "username": "contributor8",
    "password": "Contributor!23"
  },
  {
    "_id": "5fa114c9c92b4f19323fe5d5",
    "portfolioLinks": [
      "https://www.example.com/harmonyreece/link1",
      "https://www.example.com/harmonyreece/link2",
      "https://www.example.com/harmonyreece/link3"
    ],
    "socialLinks": {
      "facebook": "https://www.facebook.com/harmonyreece",
      "instagram": "https://www.instagram.com/harmonyreece",
      "youtube": "https://www.youtube.com/harmonyreece",
      "twitter": "https://www.twitter.com/harmonyreece"
    },
    "realName": "Harmony Reece",
    "photo": null,
    "isApproved": true,
    "isFeatured": true,
    "isDisabled": false,
    "email": "harmonyreece@cinestock.com",
    "username": "contributor9",
    "password": "Contributor!23"
  },
  {
    "_id": "5fa114c9c92b4f19323fe5d6",
    "portfolioLinks": ["https://www.example.com/donitapak/link1"],
    "socialLinks": {
      "facebook": "https://www.facebook.com/donitapak",
      "instagram": "https://www.instagram.com/donitapak",
      "youtube": "https://www.youtube.com/donitapak",
      "twitter": "https://www.twitter.com/donitapak"
    },
    "realName": "Donita Pak",
    "photo": null,
    "isApproved": true,
    "isFeatured": true,
    "isDisabled": false,
    "email": "donitapak@cinestock.com",
    "username": "contributor0",
    "password": "Contributor!23"
  }
]
